<?xml version="1.0" encoding="UTF-8"?>
<CustomTab xmlns="http://soap.sforce.com/2006/04/metadata">
    <label>Activity List Dashboard</label>
    <motif>Custom9: Lightning</motif>
    <page>ActivityListDashboard</page>
</CustomTab>
