<?xml version="1.0" encoding="UTF-8"?>
<CustomTab xmlns="http://soap.sforce.com/2006/04/metadata">
    <customObject>true</customObject>
    <description>User Story #: SAL15-13
Description: Tab for Branch Team object
Date: 01-20-2021</description>
    <motif>Custom63: Chip</motif>
</CustomTab>
