<?xml version="1.0" encoding="UTF-8"?>
<CustomTab xmlns="http://soap.sforce.com/2006/04/metadata">
    <customObject>true</customObject>
    <description>Community Registrant are user profiles created through external site (vaneck.com) login registration</description>
    <motif>Custom15: People</motif>
</CustomTab>
